{
  "id": "7b42eeeb-f343-43dd-82af-6ae1ac1ec2b3",
  "values": [
    {
      "key": "pg",
      "value": "1",
      "enabled": true,
      "type": "text"
    },
    {
      "key": "pid",
      "value": "39218897",
      "enabled": true,
      "type": "text"
    },
    {
      "key": "vid",
      "value": "-4Ke-leTqLDisk_L9fV3Uw",
      "enabled": true,
      "type": "text"
    },
    {
      "key": "sid",
      "value": "AB101",
      "enabled": true,
      "type": "text"
    },
    {
      "key": "bid",
      "value": "Arabian",
      "enabled": true,
      "type": "text"
    },
    {
      "key": "animal",
      "value": "Dog",
      "enabled": true,
      "type": "text"
    },
    {
      "key": "city",
      "value": "Austin",
      "enabled": true,
      "type": "text"
    },
    {
      "key": "state",
      "value": "TX",
      "enabled": true,
      "type": "text"
    },
    {
      "key": "pet_sex",
      "value": "M",
      "enabled": true,
      "type": "text"
    },
    {
      "key": "pet_age",
      "value": "Young",
      "enabled": true,
      "type": "text"
    },
    {
      "key": "pet_size",
      "value": "S",
      "enabled": true,
      "type": "text"
    },
    {
      "key": "pet_sortby",
      "value": "size",
      "enabled": true,
      "type": "text"
    },
    {
      "key": "pet_order",
      "value": "ascending",
      "enabled": true,
      "type": "text"
    },
    {
      "key": "pet_search_phrase",
      "value": "happy",
      "enabled": true,
      "type": "text"
    },
    {
      "key": "search_page_size",
      "value": "3",
      "enabled": true,
      "type": "text"
    },
    {
      "key": "search_keyword",
      "value": "happy",
      "enabled": true,
      "type": "text"
    },
    {
      "key": "pet_page_filter",
      "value": "animal={{animal}}&city={{city}}&state={{state}}",
      "enabled": true,
      "type": "text"
    },
    {
      "key": "vet_rating",
      "value": "3",
      "enabled": true,
      "type": "text"
    },
    {
      "key": "vet_sortby",
      "value": "rating",
      "enabled": true,
      "type": "text"
    },
    {
      "key": "vet_order",
      "value": "ascending",
      "enabled": true,
      "type": "text"
    },
    {
      "key": "vet_search_phrase",
      "value": "vet in austin",
      "enabled": true,
      "type": "text"
    }
  ],
  "name": "CS373 Globals",
  "_postman_variable_scope": "globals",
  "_postman_exported_at": "2018-07-19T18:55:00.434Z",
  "_postman_exported_using": "Postman/6.1.4"
}