{
  "id": "b0ae9b2f-63b9-4305-a83f-28883d5c2bcb",
  "name": "staging",
  "values": [
    {
      "key": "url",
      "value": "54.175.240.203:5000/api",
      "enabled": true,
      "type": "text"
    }
  ],
  "_postman_variable_scope": "environment",
  "_postman_exported_at": "2018-07-19T18:55:47.389Z",
  "_postman_exported_using": "Postman/6.1.4"
}