@startuml UMLDiagram
scale 800*800
header
<font color=blue>www.ConnectPetsTo.me</font>
endheader
left to right direction
skinparam packageStyle rectangle

rectangle "ER Model" {
    ' '
    ' ' {static}
    ' ' {abstract}
    ' '
    !define E(x) class x << (E,#f6c90e) >>
    !define pk(x) <u>x</u> : primary key
    !define fk(x) <i>x</i> : foreign key

    E(Pet) {
        pk (id): primary key

        *id
        name
        breed
        sex
        animal
        age
        image_url
        shelter_id
        vet_id
    }


    E(Shelter) {
        pk (id) : primary key
        *id
        name
        country
        state
        city
        address1
        address2
        zip
        phone
        logitude
        latitdue
        email
    }


    E(Vet) {
        pk (id) : primary key
        *id
        name
        image_url
        address1
        address2
        address3
        city
        state
        country
        zip_code
        display_phone
        latitdue
        longtitude
        rating
        review_count
    }
}

Pet "0..N" <-- "1..1" Shelter : < has
Vet "0..1" *-- "0..N" Pet  :  treats >
Shelter "N..N" *--* "N..N" Vet : << closeTo >>
center footer UML Diagram
@enduml
